%YAML 1.1
%TAG !u! tag:unity3d.com,2011:
--- !u!114 &11400000
MonoBehaviour:
  m_ObjectHideFlags: 0
  m_CorrespondingSourceObject: {fileID: 0}
  m_PrefabInstance: {fileID: 0}
  m_PrefabAsset: {fileID: 0}
  m_GameObject: {fileID: 0}
  m_Enabled: 1
  m_EditorHideFlags: 0
  m_Script: {fileID: 11500000, guid: 6c171eff0bb3f1d43929876e41dc290f, type: 3}
  m_Name: WoodsMan_Data
  m_EditorClassIdentifier: 
  _size: {x: 1, y: 1, z: 1}
  _entityName: Woods Man
  _maxLife: 100
  _visibleDistance: 10
  _menuData: {fileID: 11400000, guid: f3be8b4787dd6fb4481ebc277b3d84dd, type: 2}
  _canBeTeam: 1
  _speed: 5
  _rotationSpeed: 100
  _canMoveWhileRotating: 1
  _buildCost:
    _costs: 00000000000000000000000000000000
  _buildTickTime: 20
