%YAML 1.1
%TAG !u! tag:unity3d.com,2011:
--- !u!114 &11400000
MonoBehaviour:
  m_ObjectHideFlags: 0
  m_CorrespondingSourceObject: {fileID: 0}
  m_PrefabInstance: {fileID: 0}
  m_PrefabAsset: {fileID: 0}
  m_GameObject: {fileID: 0}
  m_Enabled: 1
  m_EditorHideFlags: 0
  m_Script: {fileID: 11500000, guid: 6c171eff0bb3f1d43929876e41dc290f, type: 3}
  m_Name: StoneStairs_Data
  m_EditorClassIdentifier: 
  _size: {x: 1, y: 1, z: 3}
  _entityName: Stone Stairs
  _maxLife: 100
  _visibleDistance: 20
  _menuData: {fileID: 0}
  _canBeTeam: 0
  _speed: 1
  _rotationSpeed: 2
  _canMoveWhileRotating: 1
  _buildCost:
    _costs: 00000000000000000000000000000000
  _buildTickTime: 2
