%YAML 1.1
%TAG !u! tag:unity3d.com,2011:
--- !u!114 &11400000
MonoBehaviour:
  m_ObjectHideFlags: 0
  m_CorrespondingSourceObject: {fileID: 0}
  m_PrefabInstance: {fileID: 0}
  m_PrefabAsset: {fileID: 0}
  m_GameObject: {fileID: 0}
  m_Enabled: 1
  m_EditorHideFlags: 0
  m_Script: {fileID: 11500000, guid: 682558aa9c176c3499061242ea4c60eb, type: 3}
  m_Name: StoneStairs_TP
  m_EditorClassIdentifier: 
  _tilePositions:
  - {x: 0, y: 0.81, z: -1}
  - {x: 0, y: 2.28, z: 0}
  - {x: 0, y: 3, z: 1}
  _fixedConnections:
  - from: {x: 0, y: 0, z: -1}
    to: {x: 0, y: 0, z: -2}
  - from: {x: 0, y: 0, z: -1}
    to: {x: 0, y: 1, z: 0}
  - from: {x: 0, y: 1, z: 0}
    to: {x: 0, y: 2, z: 1}
